# Blender MTL File: 'parrot.blend'
# Material Count: 1

newmtl Body
Ns 96.078431
Ka 0.000000 0.000000 0.000000
Kd 0.240739 0.473880 0.043811
Ks 0.013043 0.013043 0.013043
Ni 1.000000
d 1.000000
illum 2
