# Blender MTL File: 'star.blend'
# Material Count: 1

newmtl Star
Ns 96.078431
Ka 0.000000 0.000000 0.000000
Kd 0.640000 0.489151 0.036602
Ks 0.807339 0.807339 0.807339
Ni 1.000000
d 1.000000
illum 2
